…
```r
library(tibble)

set.seed(0)

gamma_dist <- rgamma(1e5, shape = 2, scale = 2)
norm_dist <- rnorm(5e5, mean = 20, sd = 5)

df <- tibble(
  x = c(gamma_dist, norm_dist),
	original_dataset = c(rep("gamma_dist", 1e5), rep("norm_dist", 5e5))
)
df
#> # A tibble: 600,000 x 2
#>        x original_dataset
#>    <dbl> <chr>
#>  1  6.89 gamma_dist
#>  2  2.25 gamma_dist
#>  3  1.30 gamma_dist
#>  4  4.10 gamma_dist
#>  5  7.77 gamma_dist
#>  6  5.08 gamma_dist
#>  7  4.58 gamma_dist
#>  8  2.30 gamma_dist
#>  9  1.36 gamma_dist
#> 10  1.67 gamma_dist
#> # … with 599,990 more rows
```
…
