…
tidy_img <- tibble(z = seq(1, dim(img)[3])) %>%
    mutate(xy = map(z, get_tidy_xy),
           xy = map(xy, get_mask_corners)) %>%
    unnest(xy)

tidy_img
```

    #> # A tibble: 396 x 4
    #>        z     y     x value
    #>    <int> <int> <dbl> <lgl>
    #>  1     1   278    46 TRUE 
    #>  2     1   278   541 TRUE 
    #>  3     1   281    46 TRUE 
    #>  4     1   281   541 TRUE 
    #>  5     2   275    49 TRUE 
    #>  6     2   275   538 TRUE 
    #>  7     2   284    49 TRUE 
    #>  8     2   284   538 TRUE 
    #>  9     3   273    51 TRUE 
    #> 10     3   273   536 TRUE 
    #> # … with 386 more rows
…
``` r
arrange_tidy_xy <- function(df) {
    df <- df[c(1, 2, 4, 3), ]
}

tidy_img <- tidy_img %>%
    group_by(z) %>%
    nest() %>%
    mutate(data = map(data, arrange_tidy_xy)) %>%
    unnest(data)

tidy_img
```

    #> # A tibble: 396 x 4
    #> # Groups:   z [99]
    #>        z     y     x value
    #>    <int> <int> <dbl> <lgl>
    #>  1     1   278    46 TRUE 
    #>  2     1   278   541 TRUE 
    #>  3     1   281   541 TRUE 
    #>  4     1   281    46 TRUE 
    #>  5     2   275    49 TRUE 
    #>  6     2   275   538 TRUE 
    #>  7     2   284   538 TRUE 
    #>  8     2   284    49 TRUE 
    #>  9     3   273    51 TRUE 
    #> 10     3   273   536 TRUE 
    #> # … with 386 more rows
…
