…
    }
    
    invisible(NULL)
}

get_knight_edges(2, 8)

edge_list
```

    #> # A tibble: 134 x 2
    #>    from  to   
    #>    <chr> <chr>
    #>  1 2,8   3,6  
    #>  2 2,8   1,6  
    #>  3 3,6   4,4  
    #>  4 3,6   2,4  
    #>  5 3,6   5,5  
    #>  6 3,6   1,5  
    #>  7 4,4   5,6  
    #>  8 4,4   3,6  
    #>  9 4,4   6,5  
    #> 10 4,4   2,5  
    #> # … with 124 more rows
…
