…
With that check done, we are ready to run a few thousand simulations.

``` r
set.seed(0)
N_sims <- 1e4

simulation_results <- tibble(sim = 1:N_sims) %>%
    mutate(res = map(sim, ~ simulate_one_drive(0.5, 0.5, 0, n_steps = 10)))

simulation_results
```

    #> # A tibble: 10,000 x 2
    #>      sim res              
    #>    <int> <list>           
    #>  1     1 <tibble [11 × 3]>
    #>  2     2 <tibble [11 × 3]>
    #>  3     3 <tibble [11 × 3]>
    #>  4     4 <tibble [11 × 3]>
    #>  5     5 <tibble [11 × 3]>
    #>  6     6 <tibble [11 × 3]>
    #>  7     7 <tibble [11 × 3]>
    #>  8     8 <tibble [11 × 3]>
    #>  9     9 <tibble [11 × 3]>
    #> 10    10 <tibble [11 × 3]>
    #> # … with 9,990 more rows
…
