…
To begin, a data frame of all of the nodes was created from their $x$
and $y$ locations on the board. A column `value` was made by
subsetting the matrix with the $x$ and $y$ coordinates.

``` r
node_list <- expand.grid(1:10, 1:10) %>%
    as_tibble() %>%
    set_names(c("x", "y")) %>%
    mutate(value = map2_dbl(x, y, ~ maze_matrix[.y, .x]),
           name = paste(x, y, sep = ",")) %>%
    select(name, x, y, value)
node_list
```

    #> # A tibble: 100 x 4
    #>    name      x     y value
    #>    <chr> <int> <int> <dbl>
    #>  1 1,1       1     1     6
    #>  2 2,1       2     1     2
    #>  3 3,1       3     1     1
    #>  4 4,1       4     1     3
    #>  5 5,1       5     1     6
    #>  6 6,1       6     1     1
    #>  7 7,1       7     1     7
    #>  8 8,1       8     1     7
    #>  9 9,1       9     1     4
    #> 10 10,1     10     1     3
    #> # … with 90 more rows

Then an edge list was made of all possible connections, removing the
edges that connect a node to itself.

``` r
edge_list <- expand.grid(node_list$name, node_list$name, 
                         stringsAsFactors = FALSE) %>%
    as_tibble() %>%
    set_names(c("from", "to")) %>%
    filter(from != to)
edge_list
```

    #> # A tibble: 9,900 x 2
    #>    from  to   
    #>    <chr> <chr>
    #>  1 2,1   1,1  
    #>  2 3,1   1,1  
    #>  3 4,1   1,1  
    #>  4 5,1   1,1  
    #>  5 6,1   1,1  
    #>  6 7,1   1,1  
    #>  7 8,1   1,1  
    #>  8 9,1   1,1  
    #>  9 10,1  1,1  
    #> 10 1,2   1,1  
    #> # … with 9,890 more rows
…
    edge_list <- edge_list %>%
        filter(map2_lgl(from, to, is_possible_connection, nodes = node_list))
})
```

    #> Loading stashed object.

``` r
edge_list
```

    #> # A tibble: 233 x 2
    #>    from  to   
    #>    <chr> <chr>
    #>  1 4,1   1,1  
    #>  2 8,1   1,1  
    #>  3 3,1   2,1  
    #>  4 2,4   2,1  
    #>  5 3,8   3,1  
    #>  6 2,1   4,1  
    #>  7 3,1   4,1  
    #>  8 4,3   4,1  
    #>  9 4,5   4,1  
    #> 10 6,1   5,1  
    #> # … with 223 more rows
…
